…
# what?
berg
```

    ## # A tibble: 120 × 6
    ##       id group  bai0  bai1  bdi0  bdi1
    ##    <int> <int> <dbl> <dbl> <dbl> <dbl>
    ##  1     1     1    52    34    32     9
    ##  2     2     1    29     6    16     3
    ##  3     3     1    40    22    44    35
    ##  4     4     1    29     3    42    10
    ##  5     5     1    15    16    12     3
    ##  6     6     1    42    28    26    23
    ##  7     7     1    31    22    39     9
    ##  8     8     1    44    34    25     9
    ##  9     9     1    21    21    31    33
    ## 10    10     1    19    10    38    10
    ## # … with 110 more rows
…
