…
``` r
d <- d %>% 
  mutate(session0 = session - 1) %>% 
  group_by(phase, id) %>% 
  mutate(psession = 1:n(),
         psession0 = 1:n() - 1) %>% 
  ungroup()

# what did we do?
d %>% 
  distinct(session, session0, psession, psession0)
```

    ## # A tibble: 32 × 4
    ##    session session0 psession psession0
    ##      <dbl>    <dbl>    <int>     <dbl>
    ##  1       1        0        1         0
    ##  2       2        1        2         1
    ##  3       3        2        3         2
    ##  4       4        3        4         3
    ##  5       5        4        5         4
    ##  6       6        5        6         5
    ##  7       7        6        7         6
    ##  8       8        7        8         7
    ##  9       9        8        9         8
    ## 10      10        9       10         9
    ## # … with 22 more rows
    ## # ℹ Use `print(n = ...)` to see more rows
…
