…
``` r
coyne2022_long_long %>% 
  mutate(likert = as.double(likert)) %>% 
  group_by(time, item, pretest, protection, TestGroup, MessageGroup) %>% 
  summarise(n = n(),
            m = mean(likert, na.rm = T),
            mode = Mode(likert, na.rm = T),
            s = sd(likert, na.rm = T),
            min = min(likert, na.rm = T),
            max = max(likert, na.rm = T)) %>% 
  mutate_if(is.double, round, digits = 2)
```

    ## # A tibble: 36 × 12
    ## # Groups:   time, item, pretest, protection, TestGroup [36]
    ##     time item  pretest protection TestGroup       MessageGroup     n     m  mode     s   min   max
    ##    <dbl> <fct>   <dbl>      <dbl> <fct>           <fct>        <int> <dbl> <dbl> <dbl> <dbl> <dbl>
    ##  1     0 1           1          0 PretestPosttest LossFrame      190  1.83     2  0.88     1     5
    ##  2     0 1           1          1 PretestPosttest GainFrame      163  1.83     2  0.8      1     5
    ##  3     0 2           1          0 PretestPosttest LossFrame      190  2.34     2  1.1      1     5
    ##  4     0 2           1          1 PretestPosttest GainFrame      163  2.39     1  1.17     1     5
    ##  5     0 3           1          0 PretestPosttest LossFrame      190  2.52     2  1.18     1     5
    ##  6     0 3           1          1 PretestPosttest GainFrame      163  2.58     3  1.19     1     5
    ##  7     0 4           1          0 PretestPosttest LossFrame      190  3.77     4  1.04     1     5
    ##  8     0 4           1          1 PretestPosttest GainFrame      163  3.82     5  1.17     1     5
    ##  9     0 5           1          0 PretestPosttest LossFrame      190  2.28     2  1.13     1     5
    ## 10     0 5           1          1 PretestPosttest GainFrame      163  2.35     2  1.11     1     5
    ## # … with 26 more rows
    ## # ℹ Use `print(n = ...)` to see more rows
…
# what is this?
print(fit4_epred_item_means)
```

    ## # A tibble: 24 × 9
    ##    item  protection pretest item_mean .lower .upper .width .point .interval
    ##    <fct>      <dbl>   <dbl>     <dbl>  <dbl>  <dbl>  <dbl> <chr>  <chr>    
    ##  1 1              0       0      1.75   1.61   1.88   0.95 mean   qi       
    ##  2 1              0       1      1.72   1.61   1.83   0.95 mean   qi       
    ##  3 1              1       0      1.68   1.54   1.80   0.95 mean   qi       
    ##  4 1              1       1      1.72   1.60   1.82   0.95 mean   qi       
    ##  5 2              0       0      2.15   1.97   2.35   0.95 mean   qi       
    ##  6 2              0       1      2.05   1.92   2.19   0.95 mean   qi       
    ##  7 2              1       0      2.06   1.88   2.25   0.95 mean   qi       
    ##  8 2              1       1      2.05   1.93   2.19   0.95 mean   qi       
    ##  9 3              0       0      2.31   2.12   2.53   0.95 mean   qi       
    ## 10 3              0       1      2.11   1.99   2.25   0.95 mean   qi       
    ## # … with 14 more rows
    ## # ℹ Use `print(n = ...)` to see more rows
…
