…
``` r
lai2016_long %>% 
  group_by(cond, time, pretest) %>% 
  summarise(mean = mean(d, na.rm = T),
            sd   = sd(d, na.rm = T),
            n    = n()) %>% 
  mutate_if(is.double, round, digits = 2)
```

    ## # A tibble: 52 × 6
    ## # Groups:   cond, time [26]
    ##    cond                                   time pretest   mean    sd     n
    ##    <chr>                                 <dbl>   <dbl>  <dbl> <dbl> <int>
    ##  1 Control                                   0       0 NaN    NA      221
    ##  2 Control                                   0       1   0.42  0.48   245
    ##  3 Control                                   1       0   0.39  0.46   221
    ##  4 Control                                   1       1   0.45  0.4    245
    ##  5 Evaluative conditioning                   0       0 NaN    NA      178
    ##  6 Evaluative conditioning                   0       1   0.41  0.47   208
    ##  7 Evaluative conditioning                   1       0   0.21  0.5    178
    ##  8 Evaluative conditioning                   1       1   0.36  0.43   208
    ##  9 Evaluative conditioning with the GNAT     0       0 NaN    NA      183
    ## 10 Evaluative conditioning with the GNAT     0       1   0.39  0.49   193
    ## # … with 42 more rows
…
