…
We explicitly removed the standard error ribbons from the plot with
`se = FALSE` because, IMO, they would be invalid. They’re based on OLS
estimation, which isn’t particularly appropriate for that of this kind.
However, the lines are okay for quick-and-dirty exploratory plots.

### Subset.

``` r
mancuso2016_ab <- mancuso2016 %>% 
  filter(phase != "c")

mancuso2016_ab
```

    ## # A tibble: 71 × 9
    ##       sn id    session session0 phase count seconds minutes  rate
    ##    <dbl> <fct>   <dbl>    <dbl> <chr> <dbl>   <dbl>   <dbl> <dbl>
    ##  1     1 Jen         1        0 a        20     281    4.68 4.27 
    ##  2     1 Jen         2        1 a        22     214    3.57 6.17 
    ##  3     1 Jen         3        2 a        14     204    3.4  4.12 
    ##  4     1 Jen         4        3 a        22     290    4.83 4.55 
    ##  5     1 Jen         5        4 a        17     195    3.25 5.23 
    ##  6     1 Jen         6        5 a        15     187    3.12 4.81 
    ##  7     1 Jen         7        6 a        32     259    4.32 7.41 
    ##  8     1 Jen         8        7 a        18     180    3    6    
    ##  9     1 Jen         9        8 b         2     209    3.48 0.574
    ## 10     1 Jen        10        9 b         3     299    4.98 0.602
    ## # … with 61 more rows
…
