…
Here’s how one might filter based on the last 3 of the 4 criteria.

``` r
# start with n = 2612
wagenmakers2016 %>%
  # n = 2436 (drop 87 who were 1 and 89 who were NA)
  filter(aware_of_the_goal == 0) %>% 
  # n = 2190 (drop 232 who were 0, 8 who were 2, and 6 who were NA)
  filter(comprehended_cartoons == 1) %>% 
  # n = 1913 (drop 199 who were 0, 27 who were 1, 49 who were 2, and 2 who were NA)
  filter(correct_total > 2)
```

    ## # A tibble: 1,913 × 24
    ##    lab       sn subject_no participant_id condition correct1 correct2 correct3
    ##    <chr>  <int>      <dbl> <chr>              <dbl>    <dbl>    <dbl>    <dbl>
    ##  1 Albohn     2          2 1002                   0        1        1        1
    ##  2 Albohn     3          3 1003                   0        1        1        1
    ##  3 Albohn     5          5 1005                   1        1        1        1
    ##  4 Albohn     6          6 1006                   1        1        1        1
    ##  5 Albohn     8          8 1008                   0        1        1        1
    ##  6 Albohn     9          9 1009                   0        1        1        1
    ##  7 Albohn    10         10 1010                   0        1        1        1
    ##  8 Albohn    11         11 1011                   1        1        1        1
    ##  9 Albohn    12         12 1012                   1        1        1        1
    ## 10 Albohn    14         14 1014                   0        1        1        1
    ## # … with 1,903 more rows, and 16 more variables: correct4 <dbl>,
    ## #   correct_total <dbl>, task1 <dbl>, task2 <dbl>, rating1 <dbl>,
    ## #   rating2 <dbl>, rating3 <dbl>, rating4 <dbl>,
    ## #   self_reported_task_performance <dbl>, comprehended_cartoons <dbl>,
    ## #   aware_of_the_goal <dbl>, participants_guess_of_the_studys_goal <chr>,
    ## #   age <dbl>, gender <dbl>, student <dbl>, occupation_or_field_of_study <chr>
…
